{
  "type": "object",
  "title": "Parameters",
  "required": [
    "name",
    "procedure_parameters"
  ],
  "properties": {
    "name": {
      "description": "Name of the procedure to execute.",
      "type": "string",
      "title": "Procedure name",
      "minLength": 1,
      "propertyOrder": 1
    },
    "procedure_parameters": {
      "type": "array",
      "title": "Procedure Arguments",
      "format": "table",
      "description": "Arguments to passed to procedure.",
      "uniqueItems": true,
      "propertyOrder": 5,
      "items": {
        "type": "object",
        "title": "Argument",
        "required": [
          "name",
          "value"
        ],
        "properties": {
          "name": {
            "type": "string",
            "title": "Argument Name",
            "description": "Do not include the @ character.",
            "minLength": 1,
            "propertyOrder": 1
          },
          "value": {
            "type": "string",
            "title": "Argument Value",
            "description": "Characters like ' to mark the datatype may be included.",
            "minLength": 1,
            "propertyOrder": 2
          }
        }
      }
    }
  }
}